<svg width="132" height="50" viewBox="0 0 132 50" fill="none" xmlns="http://www.w3.org/2000/svg">
<path d="M83.6405 25.264C84.5685 25.568 85.3045 26.08 85.8485 26.8C86.3925 27.504 86.6645 28.384 86.6645 29.44C86.6645 30.896 86.1045 32.024 84.9845 32.824C83.8645 33.608 82.2325 34 80.0885 34H71.7365V17.2H79.6085C81.5925 17.2 83.1205 17.592 84.1925 18.376C85.2645 19.144 85.8005 20.208 85.8005 21.568C85.8005 22.4 85.6085 23.136 85.2245 23.776C84.8405 24.416 84.3125 24.912 83.6405 25.264ZM74.8565 19.648V24.28H79.2725C80.3605 24.28 81.1925 24.088 81.7685 23.704C82.3605 23.304 82.6565 22.728 82.6565 21.976C82.6565 21.208 82.3605 20.632 81.7685 20.248C81.1925 19.848 80.3605 19.648 79.2725 19.648H74.8565ZM79.8965 31.552C82.3125 31.552 83.5205 30.744 83.5205 29.128C83.5205 27.512 82.3125 26.704 79.8965 26.704H74.8565V31.552H79.8965ZM94.6023 21.04C96.4903 21.04 97.9303 21.496 98.9223 22.408C99.9303 23.304 100.434 24.664 100.434 26.488V34H97.6023V32.44C97.2343 33 96.7063 33.432 96.0183 33.736C95.3463 34.024 94.5303 34.168 93.5703 34.168C92.6103 34.168 91.7703 34.008 91.0503 33.688C90.3303 33.352 89.7703 32.896 89.3703 32.32C88.9863 31.728 88.7943 31.064 88.7943 30.328C88.7943 29.176 89.2183 28.256 90.0663 27.568C90.9303 26.864 92.2823 26.512 94.1223 26.512H97.4343V26.32C97.4343 25.424 97.1623 24.736 96.6183 24.256C96.0903 23.776 95.2983 23.536 94.2423 23.536C93.5223 23.536 92.8103 23.648 92.1063 23.872C91.4183 24.096 90.8343 24.408 90.3543 24.808L89.1783 22.624C89.8503 22.112 90.6583 21.72 91.6023 21.448C92.5463 21.176 93.5463 21.04 94.6023 21.04ZM94.1943 31.984C94.9463 31.984 95.6103 31.816 96.1863 31.48C96.7783 31.128 97.1943 30.632 97.4343 29.992V28.504H94.3383C92.6103 28.504 91.7463 29.072 91.7463 30.208C91.7463 30.752 91.9623 31.184 92.3943 31.504C92.8263 31.824 93.4263 31.984 94.1943 31.984ZM110.282 34.168C108.954 34.168 107.762 33.888 106.706 33.328C105.65 32.768 104.826 31.992 104.234 31C103.642 29.992 103.346 28.856 103.346 27.592C103.346 26.328 103.642 25.2 104.234 24.208C104.826 23.216 105.642 22.44 106.682 21.88C107.738 21.32 108.938 21.04 110.282 21.04C111.546 21.04 112.65 21.296 113.594 21.808C114.554 22.32 115.274 23.056 115.754 24.016L113.45 25.36C113.082 24.768 112.618 24.328 112.058 24.04C111.514 23.736 110.914 23.584 110.258 23.584C109.138 23.584 108.21 23.952 107.474 24.688C106.738 25.408 106.37 26.376 106.37 27.592C106.37 28.808 106.73 29.784 107.45 30.52C108.186 31.24 109.122 31.6 110.258 31.6C110.914 31.6 111.514 31.456 112.058 31.168C112.618 30.864 113.082 30.416 113.45 29.824L115.754 31.168C115.258 32.128 114.53 32.872 113.57 33.4C112.626 33.912 111.53 34.168 110.282 34.168ZM123.462 28.504L121.23 30.616V34H118.23V16.192H121.23V26.944L127.446 21.184H131.046L125.694 26.56L131.55 34H127.902L123.462 28.504Z" fill="#053F5E"/>
<path d="M4.6875 25C4.6875 36.2178 13.7822 45.3125 25 45.3125C36.2178 45.3125 45.3125 36.2178 45.3125 25C45.3125 13.7822 36.2178 4.6875 25 4.6875C13.7822 4.6875 4.6875 13.7822 4.6875 25ZM25.4541 16.0781C25.5998 16.2226 25.7156 16.3944 25.7949 16.5837C25.8742 16.773 25.9155 16.9761 25.9163 17.1813C25.9171 17.3865 25.8775 17.5899 25.7997 17.7798C25.7219 17.9697 25.6074 18.1424 25.4629 18.2881L20.3535 23.4375H33.3984C33.8128 23.4375 34.2103 23.6021 34.5033 23.8951C34.7963 24.1882 34.9609 24.5856 34.9609 25C34.9609 25.4144 34.7963 25.8118 34.5033 26.1049C34.2103 26.3979 33.8128 26.5625 33.3984 26.5625H20.3535L25.4629 31.7119C25.6074 31.8577 25.7218 32.0306 25.7995 32.2206C25.8773 32.4106 25.9168 32.6141 25.9159 32.8194C25.915 33.0247 25.8737 33.2278 25.7943 33.4172C25.7149 33.6065 25.5989 33.7783 25.4531 33.9229C25.3073 34.0674 25.1345 34.1818 24.9444 34.2595C24.7544 34.3372 24.5509 34.3768 24.3456 34.3759C24.1403 34.375 23.9372 34.3336 23.7479 34.2542C23.5586 34.1748 23.3867 34.0589 23.2422 33.9131L15.4893 26.1006C15.1988 25.8079 15.0359 25.4123 15.0359 25C15.0359 24.5877 15.1988 24.1921 15.4893 23.8994L23.2422 16.0869C23.3867 15.9409 23.5587 15.8249 23.7481 15.7454C23.9376 15.6659 24.1409 15.6246 24.3463 15.6238C24.5518 15.6229 24.7554 15.6627 24.9455 15.7406C25.1355 15.8186 25.3084 15.9333 25.4541 16.0781Z" fill="#053F5E"/>
</svg>
